"","word","freq"
"say","say",5246
"kill","kill",4010
"year","year",3694
"new","new",3490
"will","will",3488
"world","world",3474
"govern","govern",3199
"china","china",3039
"polic","polic",2945
"protest","protest",2939
"peopl","peopl",2904
"israel","israel",2704
"countri","countri",2684
"attack","attack",2683
"report","report",2531
"state","state",2464
"war","war",2402
"russia","russia",2256
