"","Neurona","Correlacion","Probabilidad"
"1","Neurona 196,80,40","0.00242480478884495","Probabilidad Baja"
"2","Neurona 90,40,20","0.0350978894249743","Probabilidad Baja"
"3","Neurona 20,10,5","-0.0430008881084527","Probabilidad Baja"
"4","Neurona 10,5,2","0.0910053739622704","Probabilidad Baja"
"5","Neurona 40,20,10","0.0753987521609775","Probabilidad Baja"
"6","Neurona 1,1,1","-0.0101993690957042","Probabilidad Baja"
"7","Neurona 1,1","0.0426770638085816","Probabilidad Baja"
"8","Neurona 90,40","-0.018483627053139","Probabilidad Baja"
"9","Neurona 90","-0.0412397353956716","Probabilidad Baja"
"10","Neurona 1","0.00602314559617031","Probabilidad Baja"
